{
    "items": [
        {
            "type": "leaf",
            "detailedLinkID": "26",
            "title": "Bindu",
            "coverImage": "../images/dip/cover.jpg"
        },
        {
            "type": "leaf",
            "detailedLinkID": "27",
            "title": "Photo Ballet",
            "coverImage": "../images/dip/cover.jpg"
        }
    ]
}