{
    "items": [
        {
            "type": "node",
            "next": "animation",
            "title": "Experimental Animation",
            "coverImage": "../images/covers/animation.jpg"
        },
        {
            "type": "node",
            "next": "media",
            "title": "New Media Theory",
            "coverImage": "../images/covers/newmedia.jpg"
        },
        {
            "type": "link",
            "url": "https://www.behance.net/simranchopra",
            "title": "Graphic Design",
            "coverImage": "../images/covers/graphic.jpg"
        }
    ]
}